…
*Hint:* This is one of those times when you should think about the
cleanliness of your analysis. I added a single code chunk for you below,
but do you want to use more than one? Would you like to write more
comments outside of the code chunk?

<!-------------------------- Start your work below ---------------------------->

    ### EXPLORE HERE ###
    datateachr::cancer_sample

    ## # A tibble: 569 × 32
    ##          ID diagn…¹ radiu…² textu…³ perim…⁴ area_…⁵ smoot…⁶ compa…⁷ conca…⁸
    ##       <dbl> <chr>     <dbl>   <dbl>   <dbl>   <dbl>   <dbl>   <dbl>   <dbl>
    ##  1   842302 M          18.0    10.4   123.    1001   0.118   0.278   0.300 
    ##  2   842517 M          20.6    17.8   133.    1326   0.0847  0.0786  0.0869
    ##  3 84300903 M          19.7    21.2   130     1203   0.110   0.160   0.197 
    ##  4 84348301 M          11.4    20.4    77.6    386.  0.142   0.284   0.241 
    ##  5 84358402 M          20.3    14.3   135.    1297   0.100   0.133   0.198 
    ##  6   843786 M          12.4    15.7    82.6    477.  0.128   0.17    0.158 
    ##  7   844359 M          18.2    20.0   120.    1040   0.0946  0.109   0.113 
    ##  8 84458202 M          13.7    20.8    90.2    578.  0.119   0.164   0.0937
    ##  9   844981 M          13      21.8    87.5    520.  0.127   0.193   0.186 
    ## 10 84501001 M          12.5    24.0    84.0    476.  0.119   0.240   0.227 
    ## # … with 559 more rows, 23 more variables: concave_points_mean <dbl>,
    ## #   symmetry_mean <dbl>, fractal_dimension_mean <dbl>, radius_se <dbl>,
    ## #   texture_se <dbl>, perimeter_se <dbl>, area_se <dbl>,
    ## #   smoothness_se <dbl>, compactness_se <dbl>, concavity_se <dbl>,
    ## #   concave_points_se <dbl>, symmetry_se <dbl>,
    ## #   fractal_dimension_se <dbl>, radius_worst <dbl>, texture_worst <dbl>,
    ## #   perimeter_worst <dbl>, area_worst <dbl>, smoothness_worst <dbl>, …

    #datateachr::apt_buildings
    #datateachr::parking_meters
    datateachr::flow_sample

    ## # A tibble: 218 × 7
    ##    station_id  year extreme_type month   day  flow sym  
    ##    <chr>      <dbl> <chr>        <dbl> <dbl> <dbl> <chr>
    ##  1 05BB001     1909 maximum          7     7   314 <NA> 
    ##  2 05BB001     1910 maximum          6    12   230 <NA> 
    ##  3 05BB001     1911 maximum          6    14   264 <NA> 
    ##  4 05BB001     1912 maximum          8    25   174 <NA> 
    ##  5 05BB001     1913 maximum          6    11   232 <NA> 
    ##  6 05BB001     1914 maximum          6    18   214 <NA> 
    ##  7 05BB001     1915 maximum          6    27   236 <NA> 
    ##  8 05BB001     1916 maximum          6    20   309 <NA> 
    ##  9 05BB001     1917 maximum          6    17   174 <NA> 
    ## 10 05BB001     1918 maximum          6    15   345 <NA> 
    ## # … with 208 more rows
…
